boce => buc
bode => bud
boke => buk
bole => bul
bone => bun
bore => bur
bose => bus
bote => but
bove => buv
bowe => buw
code => cud
coke => cuk
cole => cul
come => cum
cone => cun
cope => cup
core => cur
cose => cus
cote => cut
coue => cuu
cove => cuv
coze => cuz
dobe => dub
dode => dud
doge => dug
doke => duk
dole => dul
dome => dum
done => dun
dope => dup
dose => dus
dote => dut
dove => duv
doze => duz
eole => eul
foge => fug
fole => ful
fone => fun
fore => fur
gode => gud
gome => gum
gone => gun
gore => gur
gote => gut
gove => guv
hohe => huh
hoke => huk
hole => hul
home => hum
hone => hun
hope => hup
hore => hur
hose => hus
hote => hut
hove => huv
howe => huw
iode => iud
yode => yud
yoke => yuk
ione => iun
yore => yur
yote => yut
yowe => yuw
jobe => jub
joie => jui
joke => juk
jole => jul
jose => jus
jove => juv
koae => kua
kome => kum
kore => kur
lobe => lub
lode => lud
loge => lug
loke => luk
lone => lun
lope => lup
lore => lur
lose => lus
lote => lut
love => luv
lowe => luw
mode => mud
moke => muk
mole => mul
mome => mum
mone => mun
mope => mup
more => mur
mose => mus
mote => mut
moue => muu
move => muv
mowe => muw
moze => muz
node => nud
nome => num
none => nun
nope => nup
nore => nur
nose => nus
note => nut
oose => ous
ooze => ouz
poke => puk
pole => pul
pome => pum
pone => pun
pope => pup
pore => pur
pose => pus
pote => put
robe => rub
rode => rud
roke => ruk
role => rul
rome => rum
rone => run
rope => rup
rose => rus
rote => rut
roue => ruu
rove => ruv
soce => suc
soke => suk
sole => sul
some => sum
sone => sun
sope => sup
sore => sur
tobe => tub
tode => tud
toke => tuk
tole => tul
tome => tum
tone => tun
tope => tup
tore => tur
tote => tut
toze => tuz
voce => vuc
vole => vul
vote => vut
wode => wud
woke => wuk
wone => wun
wore => wur
wote => wut
wove => wuv
zone => zun
